%YAML 1.1
%TAG !u! tag:unity3d.com,2011:
--- !u!114 &11400000
MonoBehaviour:
  m_ObjectHideFlags: 0
  m_CorrespondingSourceObject: {fileID: 0}
  m_PrefabInstance: {fileID: 0}
  m_PrefabAsset: {fileID: 0}
  m_GameObject: {fileID: 0}
  m_Enabled: 1
  m_EditorHideFlags: 0
  m_Script: {fileID: 11500000, guid: f999649fd82a9c44cab43f7d01c31992, type: 3}
  m_Name: AITS_MainTheme
  m_EditorClassIdentifier: 
  audioClip: {fileID: 8300000, guid: 4d6f564d92d27184f89d8d0c65dfbb72, type: 3}
  clipEnum: 0
