%YAML 1.1
%TAG !u! tag:unity3d.com,2011:
--- !u!114 &11400000
MonoBehaviour:
  m_ObjectHideFlags: 0
  m_CorrespondingSourceObject: {fileID: 0}
  m_PrefabInstance: {fileID: 0}
  m_PrefabAsset: {fileID: 0}
  m_GameObject: {fileID: 0}
  m_Enabled: 1
  m_EditorHideFlags: 0
  m_Script: {fileID: 11500000, guid: cd2c108d2b2639c48b56a4cb3b792a5f, type: 3}
  m_Name: AudioGameplaySet
  m_EditorClassIdentifier: 
  audioClips:
  - {fileID: 11400000, guid: ee385c6944a99d74c8980e2816d5bc8e, type: 2}
  - {fileID: 11400000, guid: e58b741224855a54e97b6cd16054769e, type: 2}
  - {fileID: 11400000, guid: ded9fb487d5d5db4eb56b32e73115b7d, type: 2}
  - {fileID: 11400000, guid: e50c094965a33d04c9b8ac00682455a6, type: 2}
  - {fileID: 11400000, guid: 64303b50328567c48bebae1a4e588f65, type: 2}
  - {fileID: 11400000, guid: 7f24e415760744143a35ce034230ae88, type: 2}
  - {fileID: 11400000, guid: 7eacd0b7507bef44392413432ca6e524, type: 2}
